…
## ADA in Route A

``` r
library(tidyverse)

data_reformat = data %>%
  mutate(across(starts_with("Route"), as.character))%>%
  pivot_longer(cols = starts_with("Route"), 
               names_to = "Route_Number", 
               values_to = "Route")
data_reformat
```

    ## # A tibble: 20,548 × 10
    ##    Line     Station.Name Station.Latitude Station.Longitude Entry Vending
    ##    <chr>    <chr>                   <dbl>             <dbl> <lgl> <chr>  
    ##  1 4 Avenue 25th St                  40.7             -74.0 TRUE  YES    
    ##  2 4 Avenue 25th St                  40.7             -74.0 TRUE  YES    
    ##  3 4 Avenue 25th St                  40.7             -74.0 TRUE  YES    
    ##  4 4 Avenue 25th St                  40.7             -74.0 TRUE  YES    
    ##  5 4 Avenue 25th St                  40.7             -74.0 TRUE  YES    
    ##  6 4 Avenue 25th St                  40.7             -74.0 TRUE  YES    
    ##  7 4 Avenue 25th St                  40.7             -74.0 TRUE  YES    
    ##  8 4 Avenue 25th St                  40.7             -74.0 TRUE  YES    
    ##  9 4 Avenue 25th St                  40.7             -74.0 TRUE  YES    
    ## 10 4 Avenue 25th St                  40.7             -74.0 TRUE  YES    
    ## # ℹ 20,538 more rows
    ## # ℹ 4 more variables: Entrance.Type <chr>, ADA <lgl>, Route_Number <chr>,
    ## #   Route <chr>
…
## Winners from season 5 to 10

``` r
Combined
```

    ## # A tibble: 548 × 10
    ##    series episode baker   signature_bake show_stopper baker_age baker_occupation
    ##     <dbl>   <dbl> <chr>   <chr>          <chr>            <dbl> <chr>           
    ##  1      1       1 Annetha "Light Jamaic… Red, White …        30 Midwife         
    ##  2      1       1 David   "Chocolate Or… Black Fores…        31 Entrepreneur    
    ##  3      1       1 Edd     "Caramel Cinn… N/A                 24 Debt collector …
    ##  4      1       1 Jasmin… "Fresh Mango … N/A                 45 Assistant Credi…
    ##  5      1       1 Jonath… "Carrot Cake … Three Tiere…        25 Research Analyst
    ##  6      1       1 Lea     "Cranberry an… Raspberries…        51 Retired         
    ##  7      1       1 Louise  "Carrot and O… Never Fail …        44 Police Officer  
    ##  8      1       1 Mark    "Sticky Marma… Heart-shape…        48 Bus Driver      
    ##  9      1       1 Miranda "Triple Layer… Three Tiere…        37 Food buyer for …
    ## 10      1       1 Ruth    "Three Tiered… Classic Cho…        31 Retail manager/…
    ## # ℹ 538 more rows
    ## # ℹ 3 more variables: hometown <chr>, technical <dbl>, result <chr>
…
